_id,value
CAQUETA,181.5
RISARALDA,294.35023041474653
BOYACA,250.87234042553192
NARIÑO,280.06378600823047
HUILA,223.77611940298507
BOLIVAR,325.9141414141414
CESAR,234.54761904761904
ANTIOQUIA,279.83076923076925
ARAUCA,227.72727272727272
LA GUAJIRA,303.780487804878
PUTUMAYO,220.9090909090909
QUINDIO,352.57894736842104
NORTE SANTANDER,223.09848484848484
SANTANDER,302.0459183673469
CAUCA,285.1826792963464
META,213.65891472868216
BOGOTÁ,296.8479224376731
VALLE,289.50237039302647
ATLANTICO,317.7570921985816
CALDAS,309.126582278481
CORDOBA,286.72093023255815
CASANARE,220
CUNDINAMARCA,290.2525918944392
TOLIMA,221.93421052631578
MAGDALENA,305.873417721519
